/osver:6.2
/appcontainer
/runtime:mrt100_app
/eh:clr
/pdb
"/nativelink:C:\Program Files (x86)\MSBuild\Microsoft\.NetNative\x86\ilc\lib\Native\vmath.lib"
/customImports
/methodBodyFolding
"C:\Users\ruan\Documents\Visual Studio 2015\Projects\dressme\dressme\obj\x86\Release\ilc\intermediate\MDIL\dressme.mdilexe"
"/i:C:\Users\ruan\Documents\Visual Studio 2015\Projects\dressme\dressme\obj\x86\Release\ilc\intermediate\MDIL\"
/out:"C:\Users\ruan\Documents\Visual Studio 2015\Projects\dressme\dressme\obj\x86\Release\ilc\intermediate\Native\dressme.exe"
"/res:C:\Users\ruan\Documents\Visual Studio 2015\Projects\dressme\dressme\obj\x86\Release\ilc\intermediate\Native.res"
"/i:C:\Program Files (x86)\Microsoft SDKs\Windows Kits\10\ExtensionSDKs\Microsoft.NET.Native.Framework.1.3\1.3\x86\ret\MDIL"
/shimexe
/classlib:SharedLibrary
